Anfängerpraktikum/Protokolle/V354_Gedämpfte_Erzwungene_Schwingungen/thermodrücle v354/F0000CH1.CSV

Record Length,2.500000e+03,,  -0.000023000000,  -4.00000,
Sample Interval,1.000000e-07,,  -0.000022900000,  -4.16000,
Trigger Point,2.300000000000e+02,,  -0.000022800000,  -4.08000,
,,,  -0.000022700000,  -4.00000,
,,,  -0.000022600000,  -4.00000,
,,,  -0.000022500000,  -4.08000,
Source,CH1,,  -0.000022400000,  -4.08000,
Vertical Units,V,,  -0.000022300000,  -4.00000,
Vertical Scale,2.000000e+00,,  -0.000022200000,  -4.00000,
Vertical Offset,-3.440000e+00,,  -0.000022100000,  -4.08000,
Horizontal Units,s,,  -0.000022000000,  -4.08000,
Horizontal Scale,2.500000e-05,,  -0.000021900000,  -4.08000,
Pt Fmt,Y,,  -0.000021800000,  -4.00000,
Yzero,0.000000e+00,,  -0.000021700000,  -4.00000,
Probe Atten,1.000000e+00,,  -0.000021600000,  -4.00000,
Model Number,TDS1001B,,  -0.000021500000,  -3.92000,
Serial Number,C059827,,  -0.000021400000,  -4.08000,
Firmware Version,FV:v22.01,,  -0.000021300000,  -4.08000,
,,,-00.000021200000,  -4.00000,
,,,-00.000021100000,  -4.08000,
,,,-00.000021000000,  -4.08000,
,,,-00.000020900000,  -4.08000,
,,,-00.000020800000,  -4.08000,
,,,-00.000020700000,  -4.00000,
,,,-00.000020600000,  -4.00000,
,,,-00.000020500000,  -3.92000,
,,,-00.000020400000,  -4.08000,
,,,-00.000020300000,  -4.08000,
,,,-00.000020200000,  -4.00000,
,,,-00.000020100000,  -4.08000,
,,,-00.000020000000,  -4.00000,
,,,-00.000019900000,  -4.00000,
,,,-00.000019800000,  -4.00000,
,,,-00.000019700000,  -4.00000,
,,,-00.000019600000,  -3.92000,
,,,-00.000019500000,  -4.08000,
,,,-00.000019400000,  -4.08000,
,,,-00.000019300000,  -4.00000,
,,,-00.000019200000,  -4.08000,
,,,-00.000019100000,  -4.08000,
,,,-00.000019000000,  -4.08000,
,,,-00.000018900000,  -4.00000,
,,,-00.000018800000,  -4.00000,
,,,-00.000018700000,  -3.92000,
,,,-00.000018600000,  -4.08000,
,,,-00.000018500000,  -4.08000,
,,,-00.000018400000,  -4.00000,
,,,-00.000018300000,  -4.00000,
,,,-00.000018200000,  -4.08000,
,,,-00.000018100000,  -4.00000,
,,,-00.000018000000,  -4.00000,
,,,-00.000017900000,  -4.00000,
,,,-00.000017800000,  -4.08000,
,,,-00.000017700000,  -4.08000,
,,,-00.000017600000,  -4.08000,
,,,-00.000017500000,  -4.08000,
,,,-00.000017400000,  -4.08000,
,,,-00.000017300000,  -4.08000,
,,,-00.000017200000,  -4.00000,
,,,-00.000017100000,  -4.08000,
,,,-00.000017000000,  -4.08000,
,,,-00.000016900000,  -4.00000,
,,,-00.000016800000,  -4.00000,
,,,-00.000016700000,  -4.08000,
,,,-00.000016600000,  -3.92000,
,,,-00.000016500000,  -3.92000,
,,,-00.000016400000,  -4.00000,
,,,-00.000016300000,  -4.08000,
,,,-00.000016200000,  -4.00000,
,,,-00.000016100000,  -4.00000,
,,,-00.000016000000,  -4.08000,
,,,-00.000015900000,  -4.00000,
,,,-00.000015800000,  -4.00000,
,,,-00.000015700000,  -4.08000,
,,,-00.000015600000,  -3.92000,
,,,-00.000015500000,  -4.08000,
,,,-00.000015400000,  -4.08000,
,,,-00.000015300000,  -3.92000,
,,,-00.000015200000,  -4.00000,
,,,-00.000015100000,  -4.00000,
,,,-00.000015000000,  -4.08000,
,,,-00.000014900000,  -4.00000,
,,,-00.000014800000,  -4.00000,
,,,-00.000014700000,  -4.08000,
,,,-00.000014600000,  -4.00000,
,,,-00.000014500000,  -4.00000,
,,,-00.000014400000,  -4.08000,
,,,-00.000014300000,  -4.00000,
,,,-00.000014200000,  -4.00000,
,,,-00.000014100000,  -4.00000,
,,,-00.000014000000,  -4.00000,
,,,-00.000013900000,  -4.08000,
,,,-00.000013800000,  -4.08000,
,,,-00.000013700000,  -4.08000,
,,,-00.000013600000,  -3.92000,
,,,-00.000013500000,  -4.00000,
,,,-00.000013400000,  -4.00000,
,,,-00.000013300000,  -4.00000,
,,,-00.000013200000,  -4.00000,
,,,-00.000013100000,  -4.08000,
,,,-00.000013000000,  -4.16000,
,,,-00.000012900000,  -4.00000,
,,,-00.000012800000,  -4.00000,
,,,-00.000012700000,  -4.08000,
,,,-00.000012600000,  -4.00000,
,,,-00.000012500000,  -4.00000,
,,,-00.000012400000,  -4.00000,
,,,-00.000012300000,  -4.08000,
,,,-00.000012200000,  -4.00000,
,,,-00.000012100000,  -4.08000,
,,,-00.000012000000,  -4.08000,
,,,-00.000011900000,  -4.00000,
,,,-00.000011800000,  -4.00000,
,,,-00.000011700000,  -4.00000,
,,,-00.000011600000,  -4.00000,
,,,-00.000011500000,  -4.08000,
,,,-00.000011400000,  -4.16000,
,,,-00.000011300000,  -4.16000,
,,,-00.000011200000,  -4.00000,
,,,-00.000011100000,  -4.08000,
,,,-00.000011000000,  -4.08000,
,,,-00.000010900000,  -4.16000,
,,,-00.000010800000,  -4.08000,
,,,-00.000010700000,  -4.08000,
,,,-00.000010600000,  -4.00000,
,,,-00.000010500000,  -4.08000,
,,,-00.000010400000,  -4.08000,
,,,-00.000010300000,  -4.00000,
,,,-00.000010200000,  -4.00000,
,,,-00.000010100000,  -4.08000,
,,,-00.000010000000,  -4.00000,
,,,-00.000009900000,  -4.00000,
,,,-00.000009800000,  -4.00000,
,,,-00.000009700000,  -4.08000,
,,,-00.000009600000,  -4.08000,
,,,-00.000009500000,  -4.00000,
,,,-00.000009400000,  -4.08000,
,,,-00.000009300000,  -4.08000,
,,,-00.000009200000,  -4.08000,
,,,-00.000009100000,  -3.92000,
,,,-00.000009000000,  -4.00000,
,,,-00.000008900000,  -4.00000,
,,,-00.000008800000,  -4.00000,
,,,-00.000008700000,  -4.16000,
,,,-00.000008600000,  -4.00000,
,,,-00.000008500000,  -4.00000,
,,,-00.000008400000,  -4.00000,
,,,-00.000008300000,  -4.08000,
,,,-00.000008200000,  -4.00000,
,,,-00.000008100000,  -4.00000,
,,,-00.000008000000,  -4.00000,
,,,-00.000007900000,  -4.00000,
,,,-00.000007800000,  -4.08000,
,,,-00.000007700000,  -4.08000,
,,,-00.000007600000,  -4.08000,
,,,-00.000007500000,  -4.08000,
,,,-00.000007400000,  -4.08000,
,,,-00.000007300000,  -4.00000,
,,,-00.000007200000,  -4.16000,
,,,-00.000007100000,  -4.16000,
,,,-00.000007000000,  -3.92000,
,,,-00.000006900000,  -3.92000,
,,,-00.000006800000,  -4.00000,
,,,-00.000006700000,  -3.92000,
,,,-00.000006600000,  -4.00000,
,,,-00.000006500000,  -4.00000,
,,,-00.000006400000,  -4.00000,
,,,-00.000006300000,  -3.84000,
,,,-00.000006200000,  -3.92000,
,,,-00.000006100000,  -3.92000,
,,,-00.000006000000,  -3.76000,
,,,-00.000005900000,  -3.68000,
,,,-00.000005800000,  -3.60000,
,,,-00.000005700000,  -3.52000,
,,,-00.000005600000,  -3.60000,
,,,-00.000005500000,  -3.52000,
,,,-00.000005400000,  -3.36000,
,,,-00.000005300000,  -3.28000,
,,,-00.000005200000,  -3.20000,
,,,-00.000005100000,  -3.12000,
,,,-00.000005000000,  -3.12000,
,,,-00.000004900000,  -2.96000,
,,,-00.000004800000,  -2.96000,
,,,-00.000004700000,  -2.80000,
,,,-00.000004600000,  -2.64000,
,,,-00.000004500000,  -2.64000,
,,,-00.000004400000,  -2.48000,
,,,-00.000004300000,  -2.32000,
,,,-00.000004200000,  -2.32000,
,,,-00.000004100000,  -2.16000,
,,,-00.000004000000,  -2.00000,
,,,-00.000003900000,  -2.00000,
,,,-00.000003800000,  -1.92000,
,,,-00.000003700000,  -1.68000,
,,,-00.000003600000,  -1.60000,
,,,-00.000003500000,  -1.44000,
,,,-00.000003400000,  -1.36000,
,,,-00.000003300000,  -1.12000,
,,,-00.000003200000,  -1.20000,
,,,-00.000003100000,  -0.88000,
,,,-00.000003000000,  -0.80000,
,,,-00.000002900000,  -0.64000,
,,,-00.000002800000,  -0.56000,
,,,-00.000002700000,  -0.24000,
,,,-00.000002600000,  -0.24000,
,,,-00.000002500000,   0.00000,
,,,-00.000002400000,   0.24000,
,,,-00.000002300000,   0.40000,
,,,-00.000002200000,   0.40000,
,,,-00.000002100000,   0.72000,
,,,-00.000002000000,   0.80000,
,,,-00.000001900000,   1.04000,
,,,-00.000001800000,   1.20000,
,,,-00.000001700000,   1.36000,
,,,-00.000001600000,   1.44000,
,,,-00.000001500000,   1.60000,
,,,-00.000001400000,   1.84000,
,,,-00.000001300000,   2.00000,
,,,-00.000001200000,   2.16000,
,,,-00.000001100000,   2.32000,
,,,-00.000001000000,   2.56000,
,,,-00.000000900000,   2.64000,
,,,-00.000000800000,   2.88000,
,,,-00.000000700000,   2.96000,
,,,-00.000000600000,   3.20000,
,,,-00.000000500000,   3.36000,
,,,-00.000000400000,   3.60000,
,,,-00.000000300000,   3.76000,
,,,-00.000000200000,   3.92000,
,,,-00.000000100000,   4.00000,
,,,-00.000000000000,   4.24000,
,,,00.000000100000,   4.40000,
,,,00.000000200000,   4.56000,
,,,00.000000300000,   4.64000,
,,,00.000000400000,   4.96000,
,,,00.000000500000,   5.12000,
,,,00.000000600000,   5.28000,
,,,00.000000700000,   5.44000,
,,,00.000000800000,   5.52000,
,,,00.000000900000,   5.68000,
,,,00.000001000000,   6.00000,
,,,00.000001100000,   6.08000,
,,,00.000001200000,   6.32000,
,,,00.000001300000,   6.32000,
,,,00.000001400000,   6.56000,
,,,00.000001500000,   6.72000,
,,,00.000001600000,   6.80000,
,,,00.000001700000,   7.04000,
,,,00.000001800000,   7.20000,
,,,00.000001900000,   7.44000,
,,,00.000002000000,   7.44000,
,,,00.000002100000,   7.68000,
,,,00.000002200000,   7.76000,
,,,00.000002300000,   8.00000,
,,,00.000002400000,   8.08000,
,,,00.000002500000,   8.16000,
,,,00.000002600000,   8.24000,
,,,00.000002700000,   8.40000,
,,,00.000002800000,   8.56000,
,,,00.000002900000,   8.72000,
,,,00.000003000000,   8.88000,
,,,00.000003100000,   8.96000,
,,,00.000003200000,   9.04000,
,,,00.000003300000,   9.20000,
,,,00.000003400000,   9.20000,
,,,00.000003500000,   9.36000,
,,,00.000003600000,   9.36000,
,,,00.000003700000,   9.60000,
,,,00.000003800000,   9.68000,
,,,00.000003900000,   9.68000,
,,,00.000004000000,   9.76000,
,,,00.000004100000,   9.92000,
,,,00.000004200000,   9.92000,
,,,00.000004300000,  10.00000,
,,,00.000004400000,  10.16000,
,,,00.000004500000,  10.16000,
,,,00.000004600000,  10.16000,
,,,00.000004700000,  10.32000,
,,,00.000004800000,  10.40000,
,,,00.000004900000,  10.40000,
,,,00.000005000000,  10.56000,
,,,00.000005100000,  10.56000,
,,,00.000005200000,  10.64000,
,,,00.000005300000,  10.64000,
,,,00.000005400000,  10.64000,
,,,00.000005500000,  10.80000,
,,,00.000005600000,  10.80000,
,,,00.000005700000,  10.88000,
,,,00.000005800000,  10.80000,
,,,00.000005900000,  10.80000,
,,,00.000006000000,  10.80000,
,,,00.000006100000,  10.88000,
,,,00.000006200000,  10.88000,
,,,00.000006300000,  10.88000,
,,,00.000006400000,  10.96000,
,,,00.000006500000,  10.88000,
,,,00.000006600000,  10.80000,
,,,00.000006700000,  10.80000,
,,,00.000006800000,  10.80000,
,,,00.000006900000,  10.88000,
,,,00.000007000000,  10.80000,
,,,00.000007100000,  10.96000,
,,,00.000007200000,  10.88000,
,,,00.000007300000,  10.80000,
,,,00.000007400000,  10.64000,
,,,00.000007500000,  10.72000,
,,,00.000007600000,  10.72000,
,,,00.000007700000,  10.56000,
,,,00.000007800000,  10.72000,
,,,00.000007900000,  10.48000,
,,,00.000008000000,  10.48000,
,,,00.000008100000,  10.48000,
,,,00.000008200000,  10.48000,
,,,00.000008300000,  10.32000,
,,,00.000008400000,  10.32000,
,,,00.000008500000,  10.32000,
,,,00.000008600000,  10.08000,
,,,00.000008700000,  10.08000,
,,,00.000008800000,  10.08000,
,,,00.000008900000,   9.92000,
,,,00.000009000000,   9.92000,
,,,00.000009100000,   9.76000,
,,,00.000009200000,   9.60000,
,,,00.000009300000,   9.60000,
,,,00.000009400000,   9.52000,
,,,00.000009500000,   9.36000,
,,,00.000009600000,   9.28000,
,,,00.000009700000,   9.20000,
,,,00.000009800000,   9.04000,
,,,00.000009900000,   8.96000,
,,,00.000010000000,   8.80000,
,,,00.000010100000,   8.72000,
,,,00.000010200000,   8.72000,
,,,00.000010300000,   8.48000,
,,,00.000010400000,   8.48000,
,,,00.000010500000,   8.32000,
,,,00.000010600000,   8.16000,
,,,00.000010700000,   8.00000,
,,,00.000010800000,   7.92000,
,,,00.000010900000,   7.76000,
,,,00.000011000000,   7.68000,
,,,00.000011100000,   7.52000,
,,,00.000011200000,   7.36000,
,,,00.000011300000,   7.20000,
,,,00.000011400000,   7.12000,
,,,00.000011500000,   6.96000,
,,,00.000011600000,   6.80000,
,,,00.000011700000,   6.72000,
,,,00.000011800000,   6.56000,
,,,00.000011900000,   6.40000,
,,,00.000012000000,   6.40000,
,,,00.000012100000,   6.16000,
,,,00.000012200000,   6.08000,
,,,00.000012300000,   5.92000,
,,,00.000012400000,   5.76000,
,,,00.000012500000,   5.52000,
,,,00.000012600000,   5.44000,
,,,00.000012700000,   5.28000,
,,,00.000012800000,   5.12000,
,,,00.000012900000,   4.96000,
,,,00.000013000000,   4.80000,
,,,00.000013100000,   4.72000,
,,,00.000013200000,   4.56000,
,,,00.000013300000,   4.40000,
,,,00.000013400000,   4.16000,
,,,00.000013500000,   4.16000,
,,,00.000013600000,   3.92000,
,,,00.000013700000,   3.84000,
,,,00.000013800000,   3.60000,
,,,00.000013900000,   3.44000,
,,,00.000014000000,   3.36000,
,,,00.000014100000,   3.20000,
,,,00.000014200000,   3.04000,
,,,00.000014300000,   2.88000,
,,,00.000014400000,   2.80000,
,,,00.000014500000,   2.56000,
,,,00.000014600000,   2.48000,
,,,00.000014700000,   2.40000,
,,,00.000014800000,   2.24000,
,,,00.000014900000,   2.16000,
,,,00.000015000000,   1.92000,
,,,00.000015100000,   1.92000,
,,,00.000015200000,   1.76000,
,,,00.000015300000,   1.68000,
,,,00.000015400000,   1.52000,
,,,00.000015500000,   1.28000,
,,,00.000015600000,   1.28000,
,,,00.000015700000,   1.04000,
,,,00.000015800000,   1.04000,
,,,00.000015900000,   0.72000,
,,,00.000016000000,   0.64000,
,,,00.000016100000,   0.64000,
,,,00.000016200000,   0.48000,
,,,00.000016300000,   0.40000,
,,,00.000016400000,   0.24000,
,,,00.000016500000,   0.24000,
,,,00.000016600000,   0.08000,
,,,00.000016700000,  -0.08000,
,,,00.000016800000,  -0.08000,
,,,00.000016900000,  -0.24000,
,,,00.000017000000,  -0.32000,
,,,00.000017100000,  -0.40000,
,,,00.000017200000,  -0.48000,
,,,00.000017300000,  -0.56000,
,,,00.000017400000,  -0.64000,
,,,00.000017500000,  -0.72000,
,,,00.000017600000,  -0.88000,
,,,00.000017700000,  -0.88000,
,,,00.000017800000,  -0.88000,
,,,00.000017900000,  -1.04000,
,,,00.000018000000,  -1.04000,
,,,00.000018100000,  -1.04000,
,,,00.000018200000,  -1.20000,
,,,00.000018300000,  -1.28000,
,,,00.000018400000,  -1.36000,
,,,00.000018500000,  -1.44000,
,,,00.000018600000,  -1.36000,
,,,00.000018700000,  -1.44000,
,,,00.000018800000,  -1.60000,
,,,00.000018900000,  -1.60000,
,,,00.000019000000,  -1.68000,
,,,00.000019100000,  -1.52000,
,,,00.000019200000,  -1.68000,
,,,00.000019300000,  -1.68000,
,,,00.000019400000,  -1.68000,
,,,00.000019500000,  -1.76000,
,,,00.000019600000,  -1.76000,
,,,00.000019700000,  -1.76000,
,,,00.000019800000,  -1.68000,
,,,00.000019900000,  -1.68000,
,,,00.000020000000,  -1.76000,
,,,00.000020100000,  -1.76000,
,,,00.000020200000,  -1.68000,
,,,00.000020300000,  -1.68000,
,,,00.000020400000,  -1.84000,
,,,00.000020500000,  -1.76000,
,,,00.000020600000,  -1.60000,
,,,00.000020700000,  -1.60000,
,,,00.000020800000,  -1.60000,
,,,00.000020900000,  -1.60000,
,,,00.000021000000,  -1.60000,
,,,00.000021100000,  -1.52000,
,,,00.000021200000,  -1.52000,
,,,00.000021300000,  -1.52000,
,,,00.000021400000,  -1.52000,
,,,00.000021500000,  -1.52000,
,,,00.000021600000,  -1.28000,
,,,00.000021700000,  -1.28000,
,,,00.000021800000,  -1.36000,
,,,00.000021900000,  -1.20000,
,,,00.000022000000,  -1.12000,
,,,00.000022100000,  -1.12000,
,,,00.000022200000,  -1.04000,
,,,00.000022300000,  -0.96000,
,,,00.000022400000,  -0.80000,
,,,00.000022500000,  -0.88000,
,,,00.000022600000,  -0.72000,
,,,00.000022700000,  -0.72000,
,,,00.000022800000,  -0.64000,
,,,00.000022900000,  -0.48000,
,,,00.000023000000,  -0.40000,
,,,00.000023100000,  -0.40000,
,,,00.000023200000,  -0.32000,
,,,00.000023300000,  -0.16000,
,,,00.000023400000,  -0.16000,
,,,00.000023500000,   0.00000,
,,,00.000023600000,   0.08000,
,,,00.000023700000,   0.24000,
,,,00.000023800000,   0.40000,
,,,00.000023900000,   0.48000,
,,,00.000024000000,   0.56000,
,,,00.000024100000,   0.64000,
,,,00.000024200000,   0.80000,
,,,00.000024300000,   0.80000,
,,,00.000024400000,   1.04000,
,,,00.000024500000,   1.12000,
,,,00.000024600000,   1.20000,
,,,00.000024700000,   1.36000,
,,,00.000024800000,   1.44000,
,,,00.000024900000,   1.52000,
,,,00.000025000000,   1.68000,
,,,00.000025100000,   1.76000,
,,,00.000025200000,   1.92000,
,,,00.000025300000,   2.00000,
,,,00.000025400000,   2.24000,
,,,00.000025500000,   2.24000,
,,,00.000025600000,   2.40000,
,,,00.000025700000,   2.56000,
,,,00.000025800000,   2.48000,
,,,00.000025900000,   2.72000,
,,,00.000026000000,   2.80000,
,,,00.000026100000,   3.04000,
,,,00.000026200000,   3.12000,
,,,00.000026300000,   3.28000,
,,,00.000026400000,   3.36000,
,,,00.000026500000,   3.44000,
,,,00.000026600000,   3.60000,
,,,00.000026700000,   3.76000,
,,,00.000026800000,   3.84000,
,,,00.000026900000,   3.92000,
,,,00.000027000000,   4.08000,
,,,00.000027100000,   4.24000,
,,,00.000027200000,   4.40000,
,,,00.000027300000,   4.48000,
,,,00.000027400000,   4.64000,
,,,00.000027500000,   4.72000,
,,,00.000027600000,   4.88000,
,,,00.000027700000,   5.04000,
,,,00.000027800000,   5.12000,
,,,00.000027900000,   5.28000,
,,,00.000028000000,   5.36000,
,,,00.000028100000,   5.44000,
,,,00.000028200000,   5.60000,
,,,00.000028300000,   5.68000,
,,,00.000028400000,   5.76000,
,,,00.000028500000,   5.92000,
,,,00.000028600000,   6.08000,
,,,00.000028700000,   6.24000,
,,,00.000028800000,   6.24000,
,,,00.000028900000,   6.40000,
,,,00.000029000000,   6.48000,
,,,00.000029100000,   6.48000,
,,,00.000029200000,   6.64000,
,,,00.000029300000,   6.72000,
,,,00.000029400000,   6.88000,
,,,00.000029500000,   7.04000,
,,,00.000029600000,   7.04000,
,,,00.000029700000,   7.12000,
,,,00.000029800000,   7.28000,
,,,00.000029900000,   7.36000,
,,,00.000030000000,   7.52000,
,,,00.000030100000,   7.52000,
,,,00.000030200000,   7.60000,
,,,00.000030300000,   7.84000,
,,,00.000030400000,   7.76000,
,,,00.000030500000,   7.84000,
,,,00.000030600000,   7.92000,
,,,00.000030700000,   8.00000,
,,,00.000030800000,   8.08000,
,,,00.000030900000,   8.16000,
,,,00.000031000000,   8.24000,
,,,00.000031100000,   8.24000,
,,,00.000031200000,   8.40000,
,,,00.000031300000,   8.40000,
,,,00.000031400000,   8.48000,
,,,00.000031500000,   8.56000,
,,,00.000031600000,   8.72000,
,,,00.000031700000,   8.64000,
,,,00.000031800000,   8.72000,
,,,00.000031900000,   8.72000,
,,,00.000032000000,   8.80000,
,,,00.000032100000,   8.96000,
,,,00.000032200000,   8.88000,
,,,00.000032300000,   8.88000,
,,,00.000032400000,   8.88000,
,,,00.000032500000,   8.96000,
,,,00.000032600000,   8.96000,
,,,00.000032700000,   9.04000,
,,,00.000032800000,   8.96000,
,,,00.000032900000,   9.12000,
,,,00.000033000000,   9.12000,
,,,00.000033100000,   9.12000,
,,,00.000033200000,   8.96000,
,,,00.000033300000,   9.12000,
,,,00.000033400000,   9.04000,
,,,00.000033500000,   9.12000,
,,,00.000033600000,   9.20000,
,,,00.000033700000,   9.04000,
,,,00.000033800000,   9.12000,
,,,00.000033900000,   9.04000,
,,,00.000034000000,   8.96000,
,,,00.000034100000,   9.12000,
,,,00.000034200000,   9.04000,
,,,00.000034300000,   8.96000,
,,,00.000034400000,   8.96000,
,,,00.000034500000,   8.96000,
,,,00.000034600000,   8.88000,
,,,00.000034700000,   9.04000,
,,,00.000034800000,   8.88000,
,,,00.000034900000,   8.72000,
,,,00.000035000000,   8.80000,
,,,00.000035100000,   8.80000,
,,,00.000035200000,   8.72000,
,,,00.000035300000,   8.72000,
,,,00.000035400000,   8.80000,
,,,00.000035500000,   8.64000,
,,,00.000035600000,   8.56000,
,,,00.000035700000,   8.40000,
,,,00.000035800000,   8.48000,
,,,00.000035900000,   8.32000,
,,,00.000036000000,   8.40000,
,,,00.000036100000,   8.32000,
,,,00.000036200000,   8.24000,
,,,00.000036300000,   8.08000,
,,,00.000036400000,   8.00000,
,,,00.000036500000,   8.08000,
,,,00.000036600000,   7.92000,
,,,00.000036700000,   7.84000,
,,,00.000036800000,   7.76000,
,,,00.000036900000,   7.76000,
,,,00.000037000000,   7.60000,
,,,00.000037100000,   7.60000,
,,,00.000037200000,   7.44000,
,,,00.000037300000,   7.36000,
,,,00.000037400000,   7.20000,
,,,00.000037500000,   7.28000,
,,,00.000037600000,   7.20000,
,,,00.000037700000,   6.96000,
,,,00.000037800000,   6.96000,
,,,00.000037900000,   6.96000,
,,,00.000038000000,   6.88000,
,,,00.000038100000,   6.64000,
,,,00.000038200000,   6.64000,
,,,00.000038300000,   6.48000,
,,,00.000038400000,   6.40000,
,,,00.000038500000,   6.40000,
,,,00.000038600000,   6.32000,
,,,00.000038700000,   6.08000,
,,,00.000038800000,   6.00000,
,,,00.000038900000,   5.92000,
,,,00.000039000000,   5.68000,
,,,00.000039100000,   5.60000,
,,,00.000039200000,   5.52000,
,,,00.000039300000,   5.52000,
,,,00.000039400000,   5.36000,
,,,00.000039500000,   5.20000,
